diff_exp
…
For the 4 comparison groups, add 3 columns of whether the gene overlap with literature

res.rege.sig

## # A tibble: 685 x 7
##    gene     baseMean log2FoldChange lfcSE  stat   pvalue     padj
##    <chr>       <dbl>          <dbl> <dbl> <dbl>    <dbl>    <dbl>
##  1 Seg3.15    619.            -1.61 0.380 -4.22 2.39e- 5 1.51e- 3
##  2 Seg5.10     20.6            8.26 1.96   4.21 2.55e- 5 1.58e- 3
##  3 Seg6.7     161.             1.78 0.565  3.14 1.67e- 3 3.73e- 2
##  4 Seg10.4     14.2            7.38 1.10   6.70 2.03e-11 1.41e- 8
##  5 Seg16.5    120.             1.50 0.346  4.33 1.48e- 5 1.03e- 3
##  6 Seg18.9     13.2            2.49 0.807  3.08 2.07e- 3 4.30e- 2
##  7 Seg23.13    22.9            7.45 1.05   7.12 1.04e-12 9.96e-10
##  8 Seg31.1     13.2            7.56 1.15   6.56 5.24e-11 2.94e- 8
##  9 Seg32.5      4.34           5.91 1.88   3.15 1.66e- 3 3.72e- 2
## 10 Seg43.5      9.32           7.03 1.20   5.83 5.50e- 9 1.57e- 6
## #  with 675 more rows
…
